Clustering
…
Put 5 clusters (categorical) into a linear regression w/ covariates to estimate association with LTL.

health_model_kmeans5 <- lm(logtelomean ~ as.factor(clu.group) +
     lbxwbcsi + lbxlypct + lbxmopct + lbxnepct + lbxeopct + lbxbapct + age_cent + age_sq +
as.factor(bmi_cat3) + as.factor(edu_cat) + as.factor(race_cat) + male, data = pop_clus)

health_model_kmeans5 %>% broom::tidy() %>% mutate(
  estimate = round(estimate, 4),
  std.error = round(std.error, 4),
  statistic = round(statistic, 4),
  p.value = round(p.value, 4))

## # A tibble: 22 x 5
##    term                  estimate std.error statistic  p.value
##    <chr>                    <dbl>     <dbl>     <dbl>    <dbl>
##  1 (Intercept)             3.98      8.14       0.489 0.625   
##  2 as.factor(clu.group)2  -0.066     0.029     -2.28  0.0229  
##  3 as.factor(clu.group)3  -0.113     0.0328    -3.45  0.000600
##  4 as.factor(clu.group)4  -0.0568    0.0266    -2.14  0.0325  
##  5 as.factor(clu.group)5  -0.0429    0.0226    -1.90  0.0577  
##  6 lbxwbcsi               -0.005     0.0036    -1.40  0.161   
##  7 lbxlypct               -0.0379    0.0813    -0.466 0.641   
##  8 lbxmopct               -0.0431    0.0814    -0.53  0.596   
##  9 lbxnepct               -0.0373    0.0813    -0.459 0.646   
## 10 lbxeopct               -0.0368    0.0813    -0.453 0.651   
## #  with 12 more rows
…
