Factor Analysis
…
loadings %>% filter(Max == "ML4") %>% count()

## # A tibble: 1 x 1
##       n
##   <int>
## 1     7

scores <- as.tibble(cbind(rownames(fa_4_p$scores[]), fa_4_p$scores[]))

scores$Max <- colnames(scores)[max.col(scores, ties.method = "first")]

scores

## # A tibble: 1,003 x 5
##      ML1   ML4   ML2   ML3 Max  
##    <dbl> <dbl> <dbl> <dbl> <chr>
##  1  3.22 -1.11  3.28 0.522 ML2  
##  2  2.31  2.25  2.46 0.904 ML2  
##  3  2.04  1.59  2.41 0.960 ML2  
##  4  2.07  1.43  2.38 1.26  ML2  
##  5  2.24  1.98  1.72 1.33  ML1  
##  6  1.95  1.59  2.53 0.992 ML2  
##  7  2.26  2.22  1.76 1.19  ML1  
##  8  2.36  2.27  1.64 0.650 ML1  
##  9  2.23  3.01  2.14 0.885 ML4  
## 10  1.99  1.30  1.36 1.64  ML1  
## #  with 993 more rows
…
health_model %>% broom::tidy() %>% mutate(
  estimate = round(estimate, 4),
  std.error = round(std.error, 4),
  statistic = round(statistic, 4),
  p.value = round(p.value, 4))

## # A tibble: 22 x 5
##    term        estimate std.error statistic p.value
##    <chr>          <dbl>     <dbl>     <dbl>   <dbl>
##  1 (Intercept)   3.40      8.12      0.418   0.676 
##  2 ML1           0.0013    0.0147    0.0886  0.929 
##  3 ML2           0.0231    0.0117    1.98    0.0485
##  4 ML3           0.0068    0.0095    0.718   0.473 
##  5 ML4           0.0113    0.0094    1.20    0.232 
##  6 age_cent     -0.0068    0.0007   -9.33    0     
##  7 age_sq        0         0        -0.58    0.562 
##  8 lbxwbcsi     -0.0047    0.0036   -1.32    0.186 
##  9 lbxlypct     -0.0326    0.0812   -0.402   0.688 
## 10 lbxmopct     -0.038     0.0812   -0.467   0.640 
## #  with 12 more rows
…
categorical %>% broom::tidy() %>% mutate(
  estimate = round(estimate, 4),
  std.error = round(std.error, 4),
  statistic = round(statistic, 4),
  p.value = round(p.value, 4))

## # A tibble: 21 x 5
##    term              estimate std.error statistic p.value
##    <chr>                <dbl>     <dbl>     <dbl>   <dbl>
##  1 (Intercept)         3.33      8.22       0.405   0.685
##  2 as.factor(Max)ML2   0.015     0.0215     0.697   0.486
##  3 as.factor(Max)ML3   0.0182    0.0207     0.879   0.380
##  4 as.factor(Max)ML4   0.0118    0.0206     0.574   0.566
##  5 age_cent           -0.0055    0.0005   -10.4     0    
##  6 age_sq              0         0         -0.634   0.526
##  7 lbxwbcsi           -0.0057    0.0036    -1.61    0.109
##  8 lbxlypct           -0.0322    0.0821    -0.392   0.695
##  9 lbxmopct           -0.0367    0.0821    -0.447   0.655
## 10 lbxnepct           -0.0316    0.0821    -0.385   0.701
## #  with 11 more rows
…
