Mixtures Workshop: Grouped Lasso
…
ols_beta =
  lm_from_mcp %>% 
  broom::tidy() %>% 
  dplyr::select(term, ols = estimate)

ols_v_gmcp = left_join(mcp_beta, ols_beta)

## Joining, by = "term"

ols_v_gmcp

## # A tibble: 25 x 3
##    term          mcp      ols
##    <chr>       <dbl>    <dbl>
##  1 lbx118la  0.0153  -0.0378 
##  2 lbxf03la  0.0163  NA      
##  3 lbxf04la -0.00186 NA      
##  4 lbxf05la -0.0113  NA      
##  5 lbxf08la  0.00728 NA      
##  6 lbxpcbla  0.0141   0.0256 
##  7 lbxhxcla  0.0153  -0.0560 
##  8 lbxwbcsi -0.00609 -0.00130
##  9 lbxlypct -0.00239 -0.00396
## 10 lbxmopct -0.00756 -0.0119 
## #  with 15 more rows
…
