Lasso and Elastic Net
…
ols_beta =
  lm_from_lasso %>% 
  broom::tidy() %>% 
  select(term, ols = estimate)

ols_v_lasso = left_join(lasso_beta, ols_beta)

## Joining, by = "term"

ols_v_lasso

## # A tibble: 23 x 3
##    term          lasso        ols
##    <chr>         <dbl>      <dbl>
##  1 lbx099la  0.00233    0.0180   
##  2 lbx118la  0.00411   -0.0783   
##  3 lbxf03la  0.0231    -0.00355  
##  4 lbxf08la  0.000555  NA        
##  5 lbxpcbla  0.0109     0.0198   
##  6 lbxwbcsi -0.00621    0.0000914
##  7 lbxlypct -0.00111    0.00859  
##  8 lbxmopct -0.00649    0.00106  
##  9 lbxnepct -0.000205   0.00846  
## 10 lbxeopct  0.0000741  0.00599  
## #  with 13 more rows
…
