Principal Component Analysis
…
health_model_pca %>% broom::tidy() %>% mutate(
  estimate = round(estimate, 4),
  std.error = round(std.error, 4),
  statistic = round(statistic, 4),
  p.value = round(p.value, 4))

## # A tibble: 21 x 5
##    term        estimate std.error statistic p.value
##    <chr>          <dbl>     <dbl>     <dbl>   <dbl>
##  1 (Intercept)   3.59      8.12       0.442  0.659 
##  2 PC1          -0.0116    0.0033    -3.57   0.0004
##  3 PC2           0.0008    0.005      0.169  0.866 
##  4 PC3           0.0023    0.0074     0.307  0.759 
##  5 lbxwbcsi     -0.0047    0.0036    -1.33   0.185 
##  6 lbxlypct     -0.0345    0.0812    -0.425  0.671 
##  7 lbxmopct     -0.0399    0.0812    -0.492  0.623 
##  8 lbxnepct     -0.034     0.0812    -0.418  0.676 
##  9 lbxeopct     -0.0336    0.0812    -0.414  0.679 
## 10 lbxbapct     -0.0158    0.0824    -0.192  0.848 
## #  with 11 more rows
…
